sample.interval=20000
"paste" "cat" "run" 
"paste" "cat" "run" 
"paste" "cat" "run" 
"paste" "cat" "run" 
"paste" "cat" "run" 
"paste" "cat" "run" 
"paste" "cat" "run" 
"stdout" "cat" "run" 
"strsplit" "run" 
"paste" "cat" "run" 
"readLines" "run" 
"paste" "cat" "run" 
"==" "run" 
"cat" "run" 
"readLines" "run" 
"paste" "cat" "run" 
"paste" "cat" "run" 
"strsplit" "run" 
"cat" "run" 
"readLines" "run" 
"paste" "cat" "run" 
"cat" "run" 
"paste" "cat" "run" 
"paste" "cat" "run" 
"paste" "cat" "run" 
"readLines" "run" 
"stdout" "cat" "run" 
"strsplit" "run" 
"paste" "cat" "run" 
"paste" "cat" "run" 
"paste" "cat" "run" 
"run" 
"cat" "run" 
"paste" "cat" "run" 
"paste" "cat" "run" 
"paste" "cat" "run" 
"readLines" "run" 
"cat" "run" 
"paste" "cat" "run" 
"paste" "cat" "run" 
"strsplit" "run" 
"cat" "run" 
"run" 
"paste" "cat" "run" 
"cat" "run" 
"length" "run" 
"cat" "run" 
"strsplit" "run" 
"paste" "cat" "run" 
"paste" "cat" "run" 
"paste" "cat" "run" 
"cat" "run" 
"readLines" "run" 
"paste" "cat" "run" 
"paste" "cat" "run" 
"run" 
"run" 
"strsplit" "run" 
