
Each sample represents 0.02 seconds.
Total run time: 231.38 seconds.

Total seconds: time spent in function and callees.
Self seconds: time spent in function alone.

   %       total       %        self
 total    seconds     self    seconds    name
  99.9    231.12       0.0      0.00     "addRecord"
  99.9    231.12       0.0      0.00     "addRecord.genbench"
  99.9    231.12       0.0      0.00     "system.time"
  86.0    199.10       2.1      4.90     "standardGeneric"
  86.0    199.06       0.0      0.00     "do.norm"
  83.7    193.76       2.7      6.20     ".local"
  82.3    190.54       0.1      0.20     "<Anonymous>"
  81.8    189.22       0.0      0.00     "mas5"
  81.7    189.12       0.0      0.00     "expresso"
  79.2    183.14       0.0      0.00     "computeExprSet"
  75.6    174.96       0.1      0.30     "do.call"
  74.8    173.14       0.0      0.06     "eval"
  74.0    171.10       0.0      0.06     "try"
  73.9    171.06       0.1      0.20     "tryCatch"
  73.8    170.80       0.0      0.02     "tryCatchList"
  73.8    170.78       0.0      0.02     "tryCatchOne"
  73.8    170.76       0.1      0.16     "doTryCatch"
  50.4    116.56       6.3     14.66     "pmcorrect.mas"
  43.0     99.46       8.0     18.56     "tukey.biweight"
  32.0     74.00       8.4     19.42     "median"
  22.8     52.80       4.0      9.34     "median.default"
  21.6     49.96       0.9      2.00     "generateExprVal.method.mas"
  20.3     46.96      10.8     25.04     "apply"
  15.4     35.60       6.6     15.34     "sort"
   8.7     20.08       1.4      3.24     "sort.default"
   7.3     16.84       4.6     10.74     "sort.int"
   6.1     14.08       3.2      7.48     "unlist"
   5.8     13.50       0.0      0.00     "do.qc"
   5.5     12.76       0.0      0.00     "do.geneset.examples"
   4.9     11.34       2.0      4.58     "lapply"
   4.0      9.26       0.0      0.00     "sapply"
   4.0      9.18       0.0      0.00     "rma"
   3.9      9.00       0.0      0.00     "mroast"
   3.9      9.00       0.0      0.00     "mroast.default"
   3.9      8.94       0.1      0.18     "roast.default"
   3.9      8.94       0.0      0.00     "roast"
   3.8      8.68       1.9      4.46     "FUN"
   3.7      8.46       3.7      8.46     ".Call"
   3.6      8.28       0.0      0.04     "t"
   3.6      8.24       0.0      0.00     "rowstack"
   3.3      7.62       2.5      5.84     "aperm"
   3.0      6.82       0.5      1.04     "zscoreT"
   2.6      6.12       0.3      0.82     "loadMethod"
   2.6      5.98       0.3      0.80     "bg.correct.mas"
   2.4      5.60       0.0      0.02     "qnorm"
   2.3      5.34       0.0      0.00     "simplify2array"
   2.2      5.16       0.1      0.14     "pm"
   2.0      4.62       0.3      0.76     "as.vector"
   1.9      4.38       0.0      0.00     "indexProbes"
   1.8      4.22       1.8      4.22     ".External"
   1.7      4.00       1.7      4.00     "is.factor"
   1.7      4.00       0.0      0.00     "do.load"
   1.7      3.98       0.0      0.00     "read.affybatch"
   1.7      3.90       0.0      0.00     "unique"
   1.6      3.74       0.8      1.94     "pt"
   1.6      3.58       0.1      0.18     "intensity"
   1.6      3.58       0.0      0.00     "probes"
   1.5      3.54       0.2      0.36     ".romer.mean.floormean"
   1.5      3.54       0.0      0.00     "romer"
   1.5      3.46       0.0      0.00     "new"
   1.5      3.44       0.0      0.00     "initialize"
   1.5      3.40       1.5      3.40     "any"
   1.3      3.10       0.3      0.72     "matrix"
   1.3      3.00       1.3      3.00     "-"
   1.2      2.90       1.2      2.84     "is.data.frame"
   1.2      2.86       1.1      2.60     "cbind"
   1.1      2.58       0.0      0.00     "callNextMethod"
   1.1      2.56       0.0      0.00     ".nextMethod"
   1.1      2.46       0.2      0.54     "convest"
   1.0      2.40       0.1      0.18     "assayData"
   1.0      2.36       1.0      2.36     "assign"
   1.0      2.34       0.1      0.18     "updateMe"
   0.9      2.10       0.0      0.06     "exprs"
   0.8      1.84       0.8      1.84     "ls"
   0.8      1.82       0.0      0.00     "featureNames"
   0.8      1.78       0.7      1.58     "aperm.default"
   0.7      1.72       0.7      1.72     ".C"
   0.7      1.68       0.7      1.68     "/"
   0.7      1.62       0.7      1.62     "as.character"
   0.7      1.58       0.7      1.58     "^"
   0.7      1.56       0.0      0.00     "row.names"
   0.7      1.56       0.0      0.00     "row.names.data.frame"
   0.7      1.56       0.0      0.00     "sampleNames"
   0.7      1.56       0.0      0.00     "which.max"
   0.6      1.48       0.6      1.48     "sum"
   0.6      1.48       0.0      0.00     "probeNames"
   0.6      1.46       0.1      0.16     "alist"
   0.6      1.38       0.6      1.38     "all"
   0.6      1.34       0.6      1.34     "is.na"
   0.6      1.34       0.1      0.28     "checkAtAssignment"
   0.6      1.34       0.0      0.00     "pmindex"
   0.6      1.32       0.4      0.98     "as.list"
   0.6      1.28       0.6      1.28     "*"
   0.5      1.20       0.5      1.20     "gc"
   0.5      1.14       0.5      1.14     "abs"
   0.5      1.04       0.5      1.04     "<="
   0.4      1.00       0.4      1.00     "log2"
   0.4      0.98       0.4      0.98     "&"
   0.4      0.98       0.4      0.98     "length"
   0.4      0.96       0.2      0.56     "match.arg"
   0.4      0.92       0.4      0.92     ">="
   0.4      0.92       0.4      0.92     "c"
   0.4      0.88       0.0      0.10     "["
   0.4      0.84       0.1      0.26     "mean"
   0.3      0.82       0.3      0.76     "match.fun"
   0.3      0.82       0.0      0.00     "copyEnv"
   0.3      0.78       0.0      0.00     "assayDataElementReplace"
   0.3      0.78       0.0      0.00     "do.limma"
   0.3      0.76       0.0      0.00     "intensity<-"
   0.3      0.72       0.0      0.06     "mm"
   0.3      0.70       0.3      0.64     "paste"
   0.3      0.66       0.3      0.66     "prod"
   0.3      0.64       0.1      0.28     "featureNames<-"
   0.3      0.62       0.0      0.00     "filterfun"
   0.2      0.56       0.0      0.02     "contrasts.fit"
   0.2      0.56       0.0      0.00     "rnorm"
   0.2      0.54       0.2      0.54     "get"
   0.2      0.52       0.2      0.52     "<"
   0.2      0.52       0.2      0.52     "@<-"
   0.2      0.52       0.1      0.16     "elNamed"
   0.2      0.52       0.0      0.02     "validObject"
   0.2      0.50       0.2      0.50     "mget"
   0.2      0.48       0.2      0.48     "+"
   0.2      0.46       0.2      0.46     "%/%"
   0.2      0.46       0.1      0.26     ".getClassFromCache"
   0.2      0.46       0.0      0.02     "getClass"
   0.2      0.44       0.2      0.44     "list"
   0.2      0.44       0.0      0.08     ".vecmat"
   0.2      0.40       0.2      0.40     ">"
   0.2      0.40       0.2      0.38     "exists"
   0.2      0.40       0.0      0.00     "anyStrings"
   0.2      0.40       0.0      0.00     "validityMethod"
   0.2      0.38       0.2      0.38     "names"
   0.2      0.36       0.1      0.16     "data.frame"
   0.1      0.34       0.1      0.24     "colMeans"
   0.1      0.34       0.0      0.00     "[.data.frame"
   0.1      0.32       0.1      0.30     "order"
   0.1      0.32       0.0      0.02     "identical"
   0.1      0.28       0.1      0.28     "%*%"
   0.1      0.28       0.1      0.28     "is.finite"
   0.1      0.28       0.1      0.28     "rownames<-"
   0.1      0.26       0.1      0.24     "rank"
   0.1      0.26       0.1      0.22     "match"
   0.1      0.26       0.0      0.00     "geneNames"
   0.1      0.24       0.1      0.24     "as.list.default"
   0.1      0.22       0.0      0.00     "var"
   0.1      0.20       0.1      0.20     "$"
   0.1      0.20       0.1      0.20     "%%"
   0.1      0.20       0.1      0.18     "as.matrix"
   0.1      0.18       0.1      0.18     "colnames<-"
   0.1      0.18       0.1      0.18     "is.atomic"
   0.1      0.16       0.1      0.16     ":"
   0.1      0.16       0.1      0.16     "el"
   0.1      0.16       0.1      0.14     "rowMeans"
   0.1      0.16       0.0      0.00     "annotatedDataFrameFrom"
   0.1      0.14       0.1      0.14     "("
   0.1      0.14       0.1      0.14     "ncol"
   0.1      0.14       0.1      0.14     "pmatch"
   0.1      0.14       0.0      0.06     "rowSums"
   0.1      0.14       0.0      0.04     ".identC"
   0.1      0.14       0.0      0.02     "split.default"
   0.1      0.14       0.0      0.00     "split"
   0.1      0.12       0.1      0.12     "dimnames"
   0.1      0.12       0.1      0.12     "pmcorrect.methods"
   0.1      0.12       0.0      0.08     "deparse"
   0.1      0.12       0.0      0.00     "as.factor"
   0.1      0.12       0.0      0.00     "factor"
   0.0      0.10       0.0      0.10     "array"
   0.0      0.10       0.0      0.10     "parent.frame"
   0.0      0.10       0.0      0.10     "sort.list"
   0.0      0.10       0.0      0.08     "affy.scalevalue.exprSet"
   0.0      0.10       0.0      0.06     "=="
   0.0      0.10       0.0      0.00     "lmFit"
   0.0      0.08       0.0      0.08     "ifelse"
   0.0      0.08       0.0      0.08     "seq_len"
   0.0      0.08       0.0      0.08     "sys.call"
   0.0      0.08       0.0      0.02     "as.data.frame.numeric"
   0.0      0.08       0.0      0.02     "toptable"
   0.0      0.08       0.0      0.00     "append"
   0.0      0.08       0.0      0.00     "as.data.frame"
   0.0      0.08       0.0      0.00     "eBayes"
   0.0      0.08       0.0      0.00     "qr.qty"
   0.0      0.08       0.0      0.00     "topTable"
   0.0      0.06       0.0      0.06     "express.summary.stat.methods"
   0.0      0.06       0.0      0.06     "inherits"
   0.0      0.06       0.0      0.06     "is.function"
   0.0      0.06       0.0      0.06     "is.recursive"
   0.0      0.06       0.0      0.04     "structure"
   0.0      0.06       0.0      0.02     "is"
   0.0      0.06       0.0      0.02     "nrow"
   0.0      0.06       0.0      0.00     "ebayes"
   0.0      0.06       0.0      0.00     "force"
   0.0      0.06       0.0      0.00     "isCurrent"
   0.0      0.06       0.0      0.00     "isValidVersion"
   0.0      0.06       0.0      0.00     "reportRecords"
   0.0      0.06       0.0      0.00     "reportRecords.results"
   0.0      0.06       0.0      0.00     "validMsg"
   0.0      0.04       0.0      0.04     "!"
   0.0      0.04       0.0      0.04     "$<-.data.frame"
   0.0      0.04       0.0      0.04     "is.list"
   0.0      0.04       0.0      0.04     "trigamma"
   0.0      0.04       0.0      0.04     "unique.default"
   0.0      0.04       0.0      0.02     "extends"
   0.0      0.04       0.0      0.02     "gsub"
   0.0      0.04       0.0      0.02     "mean.default"
   0.0      0.04       0.0      0.00     "$<-"
   0.0      0.04       0.0      0.00     "fitFDist"
   0.0      0.04       0.0      0.00     "library"
   0.0      0.04       0.0      0.00     "possibleExtends"
   0.0      0.04       0.0      0.00     "require"
   0.0      0.04       0.0      0.00     "squeezeVar"
   0.0      0.02       0.0      0.02     ".Fortran"
   0.0      0.02       0.0      0.02     ".requirePackage"
   0.0      0.02       0.0      0.02     "NCOL"
   0.0      0.02       0.0      0.02     "anyDuplicated.default"
   0.0      0.02       0.0      0.02     "as.environment"
   0.0      0.02       0.0      0.02     "as.list.environment"
   0.0      0.02       0.0      0.02     "as.matrix.default"
   0.0      0.02       0.0      0.02     "assayData<-"
   0.0      0.02       0.0      0.02     "attr"
   0.0      0.02       0.0      0.02     "eapply"
   0.0      0.02       0.0      0.02     "is.pairlist"
   0.0      0.02       0.0      0.02     "objects"
   0.0      0.02       0.0      0.02     "system"
   0.0      0.02       0.0      0.02     "t.default"
   0.0      0.02       0.0      0.02     "tmixture.vector"
   0.0      0.02       0.0      0.00     "%in%"
   0.0      0.02       0.0      0.00     ".AnnotatedDataFrame"
   0.0      0.02       0.0      0.00     ".POSIXct"
   0.0      0.02       0.0      0.00     ".class1"
   0.0      0.02       0.0      0.00     ".classEnv"
   0.0      0.02       0.0      0.00     ".deparseOpts"
   0.0      0.02       0.0      0.00     ".encode_numeric_version"
   0.0      0.02       0.0      0.00     ".findNextFromTable"
   0.0      0.02       0.0      0.00     ".getGeneric"
   0.0      0.02       0.0      0.00     ".getXlevels"
   0.0      0.02       0.0      0.00     "AnnotatedDataFrame"
   0.0      0.02       0.0      0.00     "Ops.numeric_version"
   0.0      0.02       0.0      0.00     "addNextMethod"
   0.0      0.02       0.0      0.00     "anyDuplicated"
   0.0      0.02       0.0      0.00     "as"
   0.0      0.02       0.0      0.00     "as<-"
   0.0      0.02       0.0      0.00     "benchmarkGroup"
   0.0      0.02       0.0      0.00     "benchmarkGroup.genbench"
   0.0      0.02       0.0      0.00     "cdfFromLibPath"
   0.0      0.02       0.0      0.00     "checkConflicts"
   0.0      0.02       0.0      0.00     "classVersion"
   0.0      0.02       0.0      0.00     "classVersion<-"
   0.0      0.02       0.0      0.00     "cleancdfname"
   0.0      0.02       0.0      0.00     "data"
   0.0      0.02       0.0      0.00     "detectCores"
   0.0      0.02       0.0      0.00     "dimLabels"
   0.0      0.02       0.0      0.00     "exprs<-"
   0.0      0.02       0.0      0.00     "file.info"
   0.0      0.02       0.0      0.00     "file.path"
   0.0      0.02       0.0      0.00     "file_test"
   0.0      0.02       0.0      0.00     "genbench"
   0.0      0.02       0.0      0.00     "getCdfInfo"
   0.0      0.02       0.0      0.00     "getClassDef"
   0.0      0.02       0.0      0.00     "getEAWP"
   0.0      0.02       0.0      0.00     "getGeneric"
   0.0      0.02       0.0      0.00     "getOutputFile"
   0.0      0.02       0.0      0.00     "getOutputFile.results"
   0.0      0.02       0.0      0.00     "isVersioned"
   0.0      0.02       0.0      0.00     "lm"
   0.0      0.02       0.0      0.00     "lm.fit"
   0.0      0.02       0.0      0.00     "lm.series"
   0.0      0.02       0.0      0.00     "loadNamespace"
   0.0      0.02       0.0      0.00     "p.adjust"
   0.0      0.02       0.0      0.00     "pf"
   0.0      0.02       0.0      0.00     "summary"
   0.0      0.02       0.0      0.00     "timings"
   0.0      0.02       0.0      0.00     "tmixture.matrix"
   0.0      0.02       0.0      0.00     "vapply"
   0.0      0.02       0.0      0.00     "write.table"


   %        self       %      total
  self    seconds    total   seconds    name
  10.8     25.04      20.3     46.96     "apply"
   8.4     19.42      32.0     74.00     "median"
   8.0     18.56      43.0     99.46     "tukey.biweight"
   6.6     15.34      15.4     35.60     "sort"
   6.3     14.66      50.4    116.56     "pmcorrect.mas"
   4.6     10.74       7.3     16.84     "sort.int"
   4.0      9.34      22.8     52.80     "median.default"
   3.7      8.46       3.7      8.46     ".Call"
   3.2      7.48       6.1     14.08     "unlist"
   2.7      6.20      83.7    193.76     ".local"
   2.5      5.84       3.3      7.62     "aperm"
   2.1      4.90      86.0    199.10     "standardGeneric"
   2.0      4.58       4.9     11.34     "lapply"
   1.9      4.46       3.8      8.68     "FUN"
   1.8      4.22       1.8      4.22     ".External"
   1.7      4.00       1.7      4.00     "is.factor"
   1.5      3.40       1.5      3.40     "any"
   1.4      3.24       8.7     20.08     "sort.default"
   1.3      3.00       1.3      3.00     "-"
   1.2      2.84       1.2      2.90     "is.data.frame"
   1.1      2.60       1.2      2.86     "cbind"
   1.0      2.36       1.0      2.36     "assign"
   0.9      2.00      21.6     49.96     "generateExprVal.method.mas"
   0.8      1.94       1.6      3.74     "pt"
   0.8      1.84       0.8      1.84     "ls"
   0.7      1.72       0.7      1.72     ".C"
   0.7      1.68       0.7      1.68     "/"
   0.7      1.62       0.7      1.62     "as.character"
   0.7      1.58       0.8      1.78     "aperm.default"
   0.7      1.58       0.7      1.58     "^"
   0.6      1.48       0.6      1.48     "sum"
   0.6      1.38       0.6      1.38     "all"
   0.6      1.34       0.6      1.34     "is.na"
   0.6      1.28       0.6      1.28     "*"
   0.5      1.20       0.5      1.20     "gc"
   0.5      1.14       0.5      1.14     "abs"
   0.5      1.04       3.0      6.82     "zscoreT"
   0.5      1.04       0.5      1.04     "<="
   0.4      1.00       0.4      1.00     "log2"
   0.4      0.98       0.6      1.32     "as.list"
   0.4      0.98       0.4      0.98     "&"
   0.4      0.98       0.4      0.98     "length"
   0.4      0.92       0.4      0.92     ">="
   0.4      0.92       0.4      0.92     "c"
   0.3      0.82       2.6      6.12     "loadMethod"
   0.3      0.80       2.6      5.98     "bg.correct.mas"
   0.3      0.76       2.0      4.62     "as.vector"
   0.3      0.76       0.3      0.82     "match.fun"
   0.3      0.72       1.3      3.10     "matrix"
   0.3      0.66       0.3      0.66     "prod"
   0.3      0.64       0.3      0.70     "paste"
   0.2      0.56       0.4      0.96     "match.arg"
   0.2      0.54       1.1      2.46     "convest"
   0.2      0.54       0.2      0.54     "get"
   0.2      0.52       0.2      0.52     "<"
   0.2      0.52       0.2      0.52     "@<-"
   0.2      0.50       0.2      0.50     "mget"
   0.2      0.48       0.2      0.48     "+"
   0.2      0.46       0.2      0.46     "%/%"
   0.2      0.44       0.2      0.44     "list"
   0.2      0.40       0.2      0.40     ">"
   0.2      0.38       0.2      0.40     "exists"
   0.2      0.38       0.2      0.38     "names"
   0.2      0.36       1.5      3.54     ".romer.mean.floormean"
   0.1      0.30      75.6    174.96     "do.call"
   0.1      0.30       0.1      0.32     "order"
   0.1      0.28       0.6      1.34     "checkAtAssignment"
   0.1      0.28       0.3      0.64     "featureNames<-"
   0.1      0.28       0.1      0.28     "%*%"
   0.1      0.28       0.1      0.28     "is.finite"
   0.1      0.28       0.1      0.28     "rownames<-"
   0.1      0.26       0.4      0.84     "mean"
   0.1      0.26       0.2      0.46     ".getClassFromCache"
   0.1      0.24       0.1      0.34     "colMeans"
   0.1      0.24       0.1      0.26     "rank"
   0.1      0.24       0.1      0.24     "as.list.default"
   0.1      0.22       0.1      0.26     "match"
   0.1      0.20      82.3    190.54     "<Anonymous>"
   0.1      0.20      73.9    171.06     "tryCatch"
   0.1      0.20       0.1      0.20     "$"
   0.1      0.20       0.1      0.20     "%%"
   0.1      0.18       3.9      8.94     "roast.default"
   0.1      0.18       1.6      3.58     "intensity"
   0.1      0.18       1.0      2.40     "assayData"
   0.1      0.18       1.0      2.34     "updateMe"
   0.1      0.18       0.1      0.20     "as.matrix"
   0.1      0.18       0.1      0.18     "colnames<-"
   0.1      0.18       0.1      0.18     "is.atomic"
   0.1      0.16      73.8    170.76     "doTryCatch"
   0.1      0.16       0.6      1.46     "alist"
   0.1      0.16       0.2      0.52     "elNamed"
   0.1      0.16       0.2      0.36     "data.frame"
   0.1      0.16       0.1      0.16     ":"
   0.1      0.16       0.1      0.16     "el"
   0.1      0.14       2.2      5.16     "pm"
   0.1      0.14       0.1      0.16     "rowMeans"
   0.1      0.14       0.1      0.14     "("
   0.1      0.14       0.1      0.14     "ncol"
   0.1      0.14       0.1      0.14     "pmatch"
   0.1      0.12       0.1      0.12     "dimnames"
   0.1      0.12       0.1      0.12     "pmcorrect.methods"
   0.0      0.10       0.4      0.88     "["
   0.0      0.10       0.0      0.10     "array"
   0.0      0.10       0.0      0.10     "parent.frame"
   0.0      0.10       0.0      0.10     "sort.list"
   0.0      0.08       0.2      0.44     ".vecmat"
   0.0      0.08       0.1      0.12     "deparse"
   0.0      0.08       0.0      0.10     "affy.scalevalue.exprSet"
   0.0      0.08       0.0      0.08     "ifelse"
   0.0      0.08       0.0      0.08     "seq_len"
   0.0      0.08       0.0      0.08     "sys.call"
   0.0      0.06      74.8    173.14     "eval"
   0.0      0.06      74.0    171.10     "try"
   0.0      0.06       0.9      2.10     "exprs"
   0.0      0.06       0.3      0.72     "mm"
   0.0      0.06       0.1      0.14     "rowSums"
   0.0      0.06       0.0      0.10     "=="
   0.0      0.06       0.0      0.06     "express.summary.stat.methods"
   0.0      0.06       0.0      0.06     "inherits"
   0.0      0.06       0.0      0.06     "is.function"
   0.0      0.06       0.0      0.06     "is.recursive"
   0.0      0.04       3.6      8.28     "t"
   0.0      0.04       0.1      0.14     ".identC"
   0.0      0.04       0.0      0.06     "structure"
   0.0      0.04       0.0      0.04     "!"
   0.0      0.04       0.0      0.04     "$<-.data.frame"
   0.0      0.04       0.0      0.04     "is.list"
   0.0      0.04       0.0      0.04     "trigamma"
   0.0      0.04       0.0      0.04     "unique.default"
   0.0      0.02      73.8    170.80     "tryCatchList"
   0.0      0.02      73.8    170.78     "tryCatchOne"
   0.0      0.02       2.4      5.60     "qnorm"
   0.0      0.02       0.2      0.56     "contrasts.fit"
   0.0      0.02       0.2      0.52     "validObject"
   0.0      0.02       0.2      0.46     "getClass"
   0.0      0.02       0.1      0.32     "identical"
   0.0      0.02       0.1      0.14     "split.default"
   0.0      0.02       0.0      0.08     "as.data.frame.numeric"
   0.0      0.02       0.0      0.08     "toptable"
   0.0      0.02       0.0      0.06     "is"
   0.0      0.02       0.0      0.06     "nrow"
   0.0      0.02       0.0      0.04     "extends"
   0.0      0.02       0.0      0.04     "gsub"
   0.0      0.02       0.0      0.04     "mean.default"
   0.0      0.02       0.0      0.02     ".Fortran"
   0.0      0.02       0.0      0.02     ".requirePackage"
   0.0      0.02       0.0      0.02     "NCOL"
   0.0      0.02       0.0      0.02     "anyDuplicated.default"
   0.0      0.02       0.0      0.02     "as.environment"
   0.0      0.02       0.0      0.02     "as.list.environment"
   0.0      0.02       0.0      0.02     "as.matrix.default"
   0.0      0.02       0.0      0.02     "assayData<-"
   0.0      0.02       0.0      0.02     "attr"
   0.0      0.02       0.0      0.02     "eapply"
   0.0      0.02       0.0      0.02     "is.pairlist"
   0.0      0.02       0.0      0.02     "objects"
   0.0      0.02       0.0      0.02     "system"
   0.0      0.02       0.0      0.02     "t.default"
   0.0      0.02       0.0      0.02     "tmixture.vector"
