sample.interval=20000
"as.character" "paste" "FUN" "lapply" "setup" 
"paste" "FUN" "lapply" "setup" 
"FUN" "lapply" "setup" 
"FUN" "lapply" "sapply" "t" "run" 
"unlist" "as.vector" "simplify2array" "sapply" "t" "run" 
"FUN" "lapply" "sapply" "t" "run" 
".C" "knn" "run" 
".C" "knn" "run" 
".C" "knn" "run" 
".C" "knn" "run" 
".C" "knn" "run" 
".C" "knn" "run" 
".C" "knn" "run" 
".C" "knn" "run" 
".C" "knn" "run" 
".C" "knn" "run" 
".C" "knn" "run" 
".C" "knn" "run" 
".C" "knn" "run" 
".C" "knn" "run" 
".C" "knn" "run" 
".C" "knn" "run" 
".C" "knn" "run" 
"NextMethod" "[.factor" "[" "FUN" "lapply" "run" 
"[.factor" "[" "FUN" "lapply" "run" 
"[.factor" "[" "FUN" "lapply" "run" 
"levels" "[.factor" "[" "FUN" "lapply" "run" 
"NextMethod" "[.factor" "[" "FUN" "lapply" "run" 
"NextMethod" "[.factor" "[" "FUN" "lapply" "run" 
"FUN" "lapply" "run" 
"FUN" "lapply" "run" 
