time,timestamp,benchmark,args,path,runs,Rscript,RscriptHome,RscriptArgs,env,platform
nan,2016-08-08 21:31:22 +0000 (EDT),R-benchmark-25.R,,/home/jiyongyu/CGO/reduction-program/R_benchmarks/benchmarks-master/R-benchmark-25,7,R-bytecode,,--vanilla,R_COMPILE_PKGS=1 R_ENABLE_JIT=2,Linux 3.19.0-49-generic #55~14.04.1-Ubuntu SMP Fri Jan 22 11:24:31 UTC 2016 x86_64 x86_64
nan,2016-08-08 21:33:56 +0000 (EDT),R-benchmark-25.R,,/home/jiyongyu/CGO/reduction-program/R_benchmarks/benchmarks-master/R-benchmark-25,7,R-bytecode,,--vanilla,R_COMPILE_PKGS=1 R_ENABLE_JIT=2,Linux 3.19.0-49-generic #55~14.04.1-Ubuntu SMP Fri Jan 22 11:24:31 UTC 2016 x86_64 x86_64
nan,2016-09-10 08:41:18 +0000 (EDT),R-benchmark-25.R,,/home/jiyongyu/CGO/reduction-program/R_benchmarks/benchmarks-master/R-benchmark-25,7,R-bytecode,,--vanilla,R_COMPILE_PKGS=1 R_ENABLE_JIT=2,Linux 3.19.0-49-generic #55~14.04.1-Ubuntu SMP Fri Jan 22 11:24:31 UTC 2016 x86_64 x86_64
nan,2016-09-10 08:41:19 +0000 (EDT),att1.R,,/home/jiyongyu/CGO/reduction-program/R_benchmarks/benchmarks-master/R-benchmark-25/Matrix_calculation,7,R-bytecode,,--vanilla,R_COMPILE_PKGS=1 R_ENABLE_JIT=2,Linux 3.19.0-49-generic #55~14.04.1-Ubuntu SMP Fri Jan 22 11:24:31 UTC 2016 x86_64 x86_64
nan,2016-09-10 08:41:19 +0000 (EDT),att2.R,,/home/jiyongyu/CGO/reduction-program/R_benchmarks/benchmarks-master/R-benchmark-25/Matrix_functions,7,R-bytecode,,--vanilla,R_COMPILE_PKGS=1 R_ENABLE_JIT=2,Linux 3.19.0-49-generic #55~14.04.1-Ubuntu SMP Fri Jan 22 11:24:31 UTC 2016 x86_64 x86_64
nan,2016-09-10 08:41:20 +0000 (EDT),att3.R,,/home/jiyongyu/CGO/reduction-program/R_benchmarks/benchmarks-master/R-benchmark-25/Programmation,7,R-bytecode,,--vanilla,R_COMPILE_PKGS=1 R_ENABLE_JIT=2,Linux 3.19.0-49-generic #55~14.04.1-Ubuntu SMP Fri Jan 22 11:24:31 UTC 2016 x86_64 x86_64
