
Each sample represents 0.02 seconds.
Total run time: 0 seconds.

Total seconds: time spent in function and callees.
Self seconds: time spent in function alone.

   %       total       %        self
 total    seconds     self    seconds    name


   %        self       %      total
  self    seconds    total   seconds    name
