time,timestamp,benchmark,args,path,runs,Rscript,RscriptHome,RscriptArgs,env,platform
6284.03,2016-08-08 21:37:20 +0000 (EDT),black_scholes.R,10000 ,/home/jiyongyu/CGO/reduction-program/R_benchmarks/benchmarks-master/riposte,7,R-bytecode,,--vanilla,R_COMPILE_PKGS=1 R_ENABLE_JIT=2,Linux 3.19.0-49-generic #55~14.04.1-Ubuntu SMP Fri Jan 22 11:24:31 UTC 2016 x86_64 x86_64
1605.94,2016-08-08 21:37:36 +0000 (EDT),cleaning.R,,/home/jiyongyu/CGO/reduction-program/R_benchmarks/benchmarks-master/riposte,7,R-bytecode,,--vanilla,R_COMPILE_PKGS=1 R_ENABLE_JIT=2,Linux 3.19.0-49-generic #55~14.04.1-Ubuntu SMP Fri Jan 22 11:24:31 UTC 2016 x86_64 x86_64
4411.85,2016-08-08 21:38:16 +0000 (EDT),example.R,,/home/jiyongyu/CGO/reduction-program/R_benchmarks/benchmarks-master/riposte,7,R-bytecode,,--vanilla,R_COMPILE_PKGS=1 R_ENABLE_JIT=2,Linux 3.19.0-49-generic #55~14.04.1-Ubuntu SMP Fri Jan 22 11:24:31 UTC 2016 x86_64 x86_64
651.54,2016-08-08 21:38:23 +0000 (EDT),filter1d.R,,/home/jiyongyu/CGO/reduction-program/R_benchmarks/benchmarks-master/riposte,7,R-bytecode,,--vanilla,R_COMPILE_PKGS=1 R_ENABLE_JIT=2,Linux 3.19.0-49-generic #55~14.04.1-Ubuntu SMP Fri Jan 22 11:24:31 UTC 2016 x86_64 x86_64
54.87,2016-08-08 21:38:28 +0000 (EDT),histogram.R,,/home/jiyongyu/CGO/reduction-program/R_benchmarks/benchmarks-master/riposte,7,R-bytecode,,--vanilla,R_COMPILE_PKGS=1 R_ENABLE_JIT=2,Linux 3.19.0-49-generic #55~14.04.1-Ubuntu SMP Fri Jan 22 11:24:31 UTC 2016 x86_64 x86_64
nan,2016-08-08 21:38:29 +0000 (EDT),kmeans.R,,/home/jiyongyu/CGO/reduction-program/R_benchmarks/benchmarks-master/riposte,7,R-bytecode,,--vanilla,R_COMPILE_PKGS=1 R_ENABLE_JIT=2,Linux 3.19.0-49-generic #55~14.04.1-Ubuntu SMP Fri Jan 22 11:24:31 UTC 2016 x86_64 x86_64
nan,2016-08-08 21:38:29 +0000 (EDT),lr_test.R,,/home/jiyongyu/CGO/reduction-program/R_benchmarks/benchmarks-master/riposte,7,R-bytecode,,--vanilla,R_COMPILE_PKGS=1 R_ENABLE_JIT=2,Linux 3.19.0-49-generic #55~14.04.1-Ubuntu SMP Fri Jan 22 11:24:31 UTC 2016 x86_64 x86_64
nan,2016-08-08 21:38:30 +0000 (EDT),lr.R,,/home/jiyongyu/CGO/reduction-program/R_benchmarks/benchmarks-master/riposte,7,R-bytecode,,--vanilla,R_COMPILE_PKGS=1 R_ENABLE_JIT=2,Linux 3.19.0-49-generic #55~14.04.1-Ubuntu SMP Fri Jan 22 11:24:31 UTC 2016 x86_64 x86_64
8802.67,2016-08-08 21:39:50 +0000 (EDT),mandelbrot.R,,/home/jiyongyu/CGO/reduction-program/R_benchmarks/benchmarks-master/riposte,7,R-bytecode,,--vanilla,R_COMPILE_PKGS=1 R_ENABLE_JIT=2,Linux 3.19.0-49-generic #55~14.04.1-Ubuntu SMP Fri Jan 22 11:24:31 UTC 2016 x86_64 x86_64
nan,2016-08-08 21:39:50 +0000 (EDT),pca.R,,/home/jiyongyu/CGO/reduction-program/R_benchmarks/benchmarks-master/riposte,7,R-bytecode,,--vanilla,R_COMPILE_PKGS=1 R_ENABLE_JIT=2,Linux 3.19.0-49-generic #55~14.04.1-Ubuntu SMP Fri Jan 22 11:24:31 UTC 2016 x86_64 x86_64
nan,2016-08-08 21:39:51 +0000 (EDT),pca-blocked.R,,/home/jiyongyu/CGO/reduction-program/R_benchmarks/benchmarks-master/riposte,7,R-bytecode,,--vanilla,R_COMPILE_PKGS=1 R_ENABLE_JIT=2,Linux 3.19.0-49-generic #55~14.04.1-Ubuntu SMP Fri Jan 22 11:24:31 UTC 2016 x86_64 x86_64
nan,2016-08-08 21:39:51 +0000 (EDT),qr.R,,/home/jiyongyu/CGO/reduction-program/R_benchmarks/benchmarks-master/riposte,7,R-bytecode,,--vanilla,R_COMPILE_PKGS=1 R_ENABLE_JIT=2,Linux 3.19.0-49-generic #55~14.04.1-Ubuntu SMP Fri Jan 22 11:24:31 UTC 2016 x86_64 x86_64
860.53,2016-08-08 21:40:01 +0000 (EDT),raysphere.R,,/home/jiyongyu/CGO/reduction-program/R_benchmarks/benchmarks-master/riposte,7,R-bytecode,,--vanilla,R_COMPILE_PKGS=1 R_ENABLE_JIT=2,Linux 3.19.0-49-generic #55~14.04.1-Ubuntu SMP Fri Jan 22 11:24:31 UTC 2016 x86_64 x86_64
1634.05,2016-08-08 21:40:16 +0000 (EDT),sample_builtin.R,,/home/jiyongyu/CGO/reduction-program/R_benchmarks/benchmarks-master/riposte,7,R-bytecode,,--vanilla,R_COMPILE_PKGS=1 R_ENABLE_JIT=2,Linux 3.19.0-49-generic #55~14.04.1-Ubuntu SMP Fri Jan 22 11:24:31 UTC 2016 x86_64 x86_64
7271.84,2016-08-08 21:41:23 +0000 (EDT),sample.R,,/home/jiyongyu/CGO/reduction-program/R_benchmarks/benchmarks-master/riposte,7,R-bytecode,,--vanilla,R_COMPILE_PKGS=1 R_ENABLE_JIT=2,Linux 3.19.0-49-generic #55~14.04.1-Ubuntu SMP Fri Jan 22 11:24:31 UTC 2016 x86_64 x86_64
314.89,2016-08-08 21:41:40 +0000 (EDT),smv_builtin.R,,/home/jiyongyu/CGO/reduction-program/R_benchmarks/benchmarks-master/riposte,7,R-bytecode,,--vanilla,R_COMPILE_PKGS=1 R_ENABLE_JIT=2,Linux 3.19.0-49-generic #55~14.04.1-Ubuntu SMP Fri Jan 22 11:24:31 UTC 2016 x86_64 x86_64
1593.94,2016-08-08 21:42:17 +0000 (EDT),smv.R,,/home/jiyongyu/CGO/reduction-program/R_benchmarks/benchmarks-master/riposte,7,R-bytecode,,--vanilla,R_COMPILE_PKGS=1 R_ENABLE_JIT=2,Linux 3.19.0-49-generic #55~14.04.1-Ubuntu SMP Fri Jan 22 11:24:31 UTC 2016 x86_64 x86_64
