sample.interval=20000
"cat" "repeat_fasta" "run" 
"cat" "repeat_fasta" "run" 
"cat" "repeat_fasta" "run" 
"cat" "repeat_fasta" "run" 
"cat" "repeat_fasta" "run" 
"repeat_fasta" "run" 
"cat" "repeat_fasta" "run" 
"cat" "repeat_fasta" "run" 
"cat" "repeat_fasta" "run" 
"cat" "repeat_fasta" "run" 
"cat" "repeat_fasta" "run" 
"cat" "repeat_fasta" "run" 
"cat" "repeat_fasta" "run" 
"cat" "repeat_fasta" "run" 
"cat" "repeat_fasta" "run" 
"cat" "repeat_fasta" "run" 
"cat" "repeat_fasta" "run" 
"cat" "repeat_fasta" "run" 
"cat" "repeat_fasta" "run" 
"cat" "repeat_fasta" "run" 
"cat" "repeat_fasta" "run" 
"cat" "repeat_fasta" "run" 
"cat" "repeat_fasta" "run" 
"cat" "repeat_fasta" "run" 
"cat" "repeat_fasta" "run" 
"cat" "repeat_fasta" "run" 
"cat" "repeat_fasta" "run" 
"cat" "repeat_fasta" "run" 
"cat" "repeat_fasta" "run" 
"cat" "repeat_fasta" "run" 
"cat" "repeat_fasta" "run" 
"cat" "repeat_fasta" "run" 
"repeat_fasta" "run" 
"random_fasta" "run" 
"random_fasta" "run" 
"random_next_lookup" "random_fasta" "run" 
"random_next_lookup" "random_fasta" "run" 
"random_fasta" "run" 
"random_fasta" "run" 
"random_next_lookup" "random_fasta" "run" 
"random_next_lookup" "random_fasta" "run" 
"random_next_lookup" "random_fasta" "run" 
"%%" "random_next_lookup" "random_fasta" "run" 
"random_next_lookup" "random_fasta" "run" 
"random_next_lookup" "random_fasta" "run" 
"random_fasta" "run" 
"random_fasta" "run" 
"random_next_lookup" "random_fasta" "run" 
"random_next_lookup" "random_fasta" "run" 
"random_fasta" "run" 
"random_next_lookup" "random_fasta" "run" 
"paste" "cat" "random_fasta" "run" 
"random_fasta" "run" 
"random_fasta" "run" 
"random_next_lookup" "random_fasta" "run" 
"random_fasta" "run" 
"paste" "cat" "random_fasta" "run" 
"random_fasta" "run" 
"random_fasta" "run" 
"random_fasta" "run" 
"random_fasta" "run" 
"random_fasta" "run" 
"random_next_lookup" "random_fasta" "run" 
"random_next_lookup" "random_fasta" "run" 
"random_fasta" "run" 
"random_next_lookup" "random_fasta" "run" 
"random_fasta" "run" 
"random_fasta" "run" 
"paste" "cat" "random_fasta" "run" 
"(" "random_next_lookup" "random_fasta" "run" 
"random_next_lookup" "random_fasta" "run" 
"random_fasta" "run" 
"random_fasta" "run" 
"random_next_lookup" "random_fasta" "run" 
"random_fasta" "run" 
"/" "random_next_lookup" "random_fasta" "run" 
"random_next_lookup" "random_fasta" "run" 
"random_next_lookup" "random_fasta" "run" 
"*" "random_next_lookup" "random_fasta" "run" 
"random_next_lookup" "random_fasta" "run" 
"random_fasta" "run" 
"random_fasta" "run" 
"random_next_lookup" "random_fasta" "run" 
"which" "random_fasta" "run" 
"random_fasta" "run" 
"*" "random_next_lookup" "random_fasta" "run" 
"random_fasta" "run" 
"random_next_lookup" "random_fasta" "run" 
"random_next_lookup" "random_fasta" "run" 
"random_fasta" "run" 
"random_next_lookup" "random_fasta" "run" 
"random_fasta" "run" 
"cat" "random_fasta" "run" 
"random_next_lookup" "random_fasta" "run" 
"random_fasta" "run" 
"random_fasta" "run" 
"random_fasta" "run" 
"random_next_lookup" "random_fasta" "run" 
"random_next_lookup" "random_fasta" "run" 
"random_next_lookup" "random_fasta" "run" 
"random_next_lookup" "random_fasta" "run" 
"random_fasta" "run" 
"random_fasta" "run" 
"random_next_lookup" "random_fasta" "run" 
"random_next_lookup" "random_fasta" "run" 
"random_fasta" "run" 
"random_next_lookup" "random_fasta" "run" 
"stdout" "cat" "random_fasta" "run" 
"random_fasta" "run" 
"+" "random_next_lookup" "random_fasta" "run" 
"random_fasta" "run" 
"random_fasta" "run" 
"random_fasta" "run" 
"random_fasta" "run" 
"(" "random_next_lookup" "random_fasta" "run" 
"random_next_lookup" "random_fasta" "run" 
"random_fasta" "run" 
"random_next_lookup" "random_fasta" "run" 
"cat" "random_fasta" "run" 
"cat" "random_fasta" "run" 
"paste" "cat" "random_fasta" "run" 
"random_next_lookup" "random_fasta" "run" 
"random_next_lookup" "random_fasta" "run" 
"random_fasta" "run" 
"random_fasta" "run" 
"random_next_lookup" "random_fasta" "run" 
"random_fasta" "run" 
"random_fasta" "run" 
"random_fasta" "run" 
"random_next_lookup" "random_fasta" "run" 
"+" "random_next_lookup" "random_fasta" "run" 
"paste" "cat" "random_fasta" "run" 
"random_next_lookup" "random_fasta" "run" 
"random_next_lookup" "random_fasta" "run" 
"random_fasta" "run" 
"random_fasta" "run" 
"random_next_lookup" "random_fasta" "run" 
"random_fasta" "run" 
"random_next_lookup" "random_fasta" "run" 
"paste" "cat" "random_fasta" "run" 
"cat" "random_fasta" "run" 
"random_fasta" "run" 
"/" "random_next_lookup" "random_fasta" "run" 
"random_next_lookup" "random_fasta" "run" 
"paste" "cat" "random_fasta" "run" 
"*" "random_next_lookup" "random_fasta" "run" 
"random_next_lookup" "random_fasta" "run" 
"cat" "random_fasta" "run" 
"*" "random_next_lookup" "random_fasta" "run" 
"random_next_lookup" "random_fasta" "run" 
"random_next_lookup" "random_fasta" "run" 
"/" "random_next_lookup" "random_fasta" "run" 
"random_fasta" "run" 
"*" "random_next_lookup" "random_fasta" "run" 
"random_next_lookup" "random_fasta" "run" 
"random_fasta" "run" 
"random_next_lookup" "random_fasta" "run" 
"random_fasta" "run" 
"paste" "cat" "random_fasta" "run" 
"random_fasta" "run" 
"random_next_lookup" "random_fasta" "run" 
"paste" "cat" "random_fasta" "run" 
"random_fasta" "run" 
"random_fasta" "run" 
"random_fasta" "run" 
"random_next_lookup" "random_fasta" "run" 
"random_next_lookup" "random_fasta" "run" 
"random_fasta" "run" 
"random_next_lookup" "random_fasta" "run" 
"random_next_lookup" "random_fasta" "run" 
"random_fasta" "run" 
"random_next_lookup" "random_fasta" "run" 
"random_fasta" "run" 
"cat" "random_fasta" "run" 
"random_fasta" "run" 
"random_fasta" "run" 
"random_next_lookup" "random_fasta" "run" 
"random_next_lookup" "random_fasta" "run" 
"random_next_lookup" "random_fasta" "run" 
"random_next_lookup" "random_fasta" "run" 
"random_fasta" "run" 
"random_fasta" "run" 
"random_next_lookup" "random_fasta" "run" 
"random_fasta" "run" 
"%%" "random_next_lookup" "random_fasta" "run" 
"random_next_lookup" "random_fasta" "run" 
"random_fasta" "run" 
"random_fasta" "run" 
"random_next_lookup" "random_fasta" "run" 
"random_next_lookup" "random_fasta" "run" 
"random_fasta" "run" 
"random_fasta" "run" 
"*" "random_next_lookup" "random_fasta" "run" 
"(" "random_next_lookup" "random_fasta" "run" 
"random_next_lookup" "random_fasta" "run" 
"random_next_lookup" "random_fasta" "run" 
"%%" "random_next_lookup" "random_fasta" "run" 
"random_next_lookup" "random_fasta" "run" 
"paste" "cat" "random_fasta" "run" 
"random_fasta" "run" 
"random_fasta" "run" 
"random_fasta" "run" 
"paste" "cat" "random_fasta" "run" 
"<" "which" "random_fasta" "run" 
"random_next_lookup" "random_fasta" "run" 
"random_fasta" "run" 
"+" "random_fasta" "run" 
"*" "random_next_lookup" "random_fasta" "run" 
"random_next_lookup" "random_fasta" "run" 
"random_fasta" "run" 
"random_next_lookup" "random_fasta" "run" 
"+" "random_next_lookup" "random_fasta" "run" 
"random_next_lookup" "random_fasta" "run" 
"random_next_lookup" "random_fasta" "run" 
"random_next_lookup" "random_fasta" "run" 
"random_next_lookup" "random_fasta" "run" 
"cat" "random_fasta" "run" 
"random_next_lookup" "random_fasta" "run" 
"random_next_lookup" "random_fasta" "run" 
"random_next_lookup" "random_fasta" "run" 
"random_fasta" "run" 
"random_fasta" "run" 
"random_fasta" "run" 
"random_fasta" "run" 
"cat" "random_fasta" "run" 
"random_next_lookup" "random_fasta" "run" 
"paste" "cat" "random_fasta" "run" 
"random_next_lookup" "random_fasta" "run" 
"random_fasta" "run" 
"random_fasta" "run" 
"random_fasta" "run" 
"paste" "cat" "random_fasta" "run" 
"random_next_lookup" "random_fasta" "run" 
"random_fasta" "run" 
"random_fasta" "run" 
"paste" "cat" "random_fasta" "run" 
"random_next_lookup" "random_fasta" "run" 
"paste" "cat" "random_fasta" "run" 
"random_next_lookup" "random_fasta" "run" 
"random_next_lookup" "random_fasta" "run" 
"random_fasta" "run" 
"cat" "random_fasta" "run" 
"random_next_lookup" "random_fasta" "run" 
"random_next_lookup" "random_fasta" "run" 
"random_next_lookup" "random_fasta" "run" 
"random_next_lookup" "random_fasta" "run" 
"*" "random_next_lookup" "random_fasta" "run" 
"random_fasta" "run" 
"random_fasta" "run" 
"paste" "cat" "random_fasta" "run" 
"paste" "cat" "random_fasta" "run" 
"*" "random_next_lookup" "random_fasta" "run" 
"random_fasta" "run" 
"random_next_lookup" "random_fasta" "run" 
"random_fasta" "run" 
"random_fasta" "run" 
"random_fasta" "run" 
"*" "random_next_lookup" "random_fasta" "run" 
"paste" "cat" "random_fasta" "run" 
"random_fasta" "run" 
"+" "random_next_lookup" "random_fasta" "run" 
"random_fasta" "run" 
"random_fasta" "run" 
"random_next_lookup" "random_fasta" "run" 
"random_next_lookup" "random_fasta" "run" 
"random_next_lookup" "random_fasta" "run" 
"random_fasta" "run" 
"random_next_lookup" "random_fasta" "run" 
"random_fasta" "run" 
"random_next_lookup" "random_fasta" "run" 
"random_next_lookup" "random_fasta" "run" 
"random_next_lookup" "random_fasta" "run" 
"random_next_lookup" "random_fasta" "run" 
"random_next_lookup" "random_fasta" "run" 
"paste" "cat" "random_fasta" "run" 
"random_next_lookup" "random_fasta" "run" 
"random_next_lookup" "random_fasta" "run" 
"random_fasta" "run" 
"random_fasta" "run" 
"cat" "random_fasta" "run" 
"*" "random_next_lookup" "random_fasta" "run" 
"cat" "random_fasta" "run" 
"random_next_lookup" "random_fasta" "run" 
"/" "random_next_lookup" "random_fasta" "run" 
"random_fasta" "run" 
"cat" "random_fasta" "run" 
"*" "random_next_lookup" "random_fasta" "run" 
"random_fasta" "run" 
"random_fasta" "run" 
"/" "random_next_lookup" "random_fasta" "run" 
"+" "random_next_lookup" "random_fasta" "run" 
"*" "random_next_lookup" "random_fasta" "run" 
"random_next_lookup" "random_fasta" "run" 
"+" "random_next_lookup" "random_fasta" "run" 
"random_next_lookup" "random_fasta" "run" 
"random_next_lookup" "random_fasta" "run" 
"random_next_lookup" "random_fasta" "run" 
"+" "random_next_lookup" "random_fasta" "run" 
"min" "random_fasta" "run" 
"random_fasta" "run" 
"paste" "cat" "random_fasta" "run" 
"random_next_lookup" "random_fasta" "run" 
"/" "random_next_lookup" "random_fasta" "run" 
"random_fasta" "run" 
"random_next_lookup" "random_fasta" "run" 
"random_fasta" "run" 
"random_fasta" "run" 
"random_next_lookup" "random_fasta" "run" 
"random_next_lookup" "random_fasta" "run" 
"random_fasta" "run" 
"random_fasta" "run" 
"random_fasta" "run" 
"random_next_lookup" "random_fasta" "run" 
"random_next_lookup" "random_fasta" "run" 
"*" "random_next_lookup" "random_fasta" "run" 
"paste" "cat" "random_fasta" "run" 
"random_fasta" "run" 
"random_next_lookup" "random_fasta" "run" 
"random_fasta" "run" 
"random_fasta" "run" 
"random_fasta" "run" 
"random_next_lookup" "random_fasta" "run" 
"random_fasta" "run" 
"cat" "random_fasta" "run" 
"random_fasta" "run" 
"random_next_lookup" "random_fasta" "run" 
":" "random_fasta" "run" 
"random_next_lookup" "random_fasta" "run" 
"random_fasta" "run" 
"random_next_lookup" "random_fasta" "run" 
"*" "random_next_lookup" "random_fasta" "run" 
"random_next_lookup" "random_fasta" "run" 
"paste" "cat" "random_fasta" "run" 
"random_fasta" "run" 
"random_next_lookup" "random_fasta" "run" 
"cat" "random_fasta" "run" 
"random_fasta" "run" 
"random_fasta" "run" 
"random_next_lookup" "random_fasta" "run" 
"*" "random_next_lookup" "random_fasta" "run" 
"random_next_lookup" "random_fasta" "run" 
"random_fasta" "run" 
"which" "random_fasta" "run" 
"random_fasta" "run" 
"*" "random_next_lookup" "random_fasta" "run" 
"random_fasta" "run" 
"random_fasta" "run" 
"random_fasta" "run" 
"double" "random_fasta" "run" 
"random_next_lookup" "random_fasta" "run" 
"random_next_lookup" "random_fasta" "run" 
"random_next_lookup" "random_fasta" "run" 
"random_next_lookup" "random_fasta" "run" 
"double" "random_fasta" "run" 
"random_fasta" "run" 
"random_next_lookup" "random_fasta" "run" 
"random_next_lookup" "random_fasta" "run" 
"random_next_lookup" "random_fasta" "run" 
"cat" "random_fasta" "run" 
"random_fasta" "run" 
"random_next_lookup" "random_fasta" "run" 
"random_next_lookup" "random_fasta" "run" 
"random_fasta" "run" 
"random_fasta" "run" 
"/" "random_next_lookup" "random_fasta" "run" 
"random_fasta" "run" 
