sample.interval=20000
".External" "runif" "run" 
"runif" "run" 
".External" "runif" "run" 
"runif" "run" 
"run" 
".External" "runif" "run" 
".External" "runif" "run" 
"run" 
"run" 
"run" 
"run" 
"run" 
"run" 
">" "run" 
"runif" "run" 
"run" 
".External" "runif" "run" 
".External" "runif" "run" 
".External" "runif" "run" 
"run" 
"run" 
".External" "runif" "run" 
".External" "runif" "run" 
"-" "run" 
"runif" "run" 
"runif" "run" 
"run" 
".External" "runif" "run" 
"runif" "run" 
"runif" "run" 
"run" 
".External" "runif" "run" 
".External" "runif" "run" 
"runif" "run" 
