* installing *source* package ‘FMAstyle’ ...
** libs
g++ -I/usr/share/R/include -DNDEBUG  -O3 -mavx2 -mfma -fabi-version=0 -I"/home/jiyongyu/R/x86_64-pc-linux-gnu-library/3.0/Rcpp/include"  -O3 -mavx2 -mfma -fabi-version=0 -fpic  -O3 -pipe  -g  -c FMAcode.cpp -o FMAcode.o
g++ -I/usr/share/R/include -DNDEBUG  -O3 -mavx2 -mfma -fabi-version=0 -I"/home/jiyongyu/R/x86_64-pc-linux-gnu-library/3.0/Rcpp/include"  -O3 -mavx2 -mfma -fabi-version=0 -fpic  -O3 -pipe  -g  -c RcppExports.cpp -o RcppExports.o
g++ -shared -o FMAstyle.so FMAcode.o RcppExports.o -L/usr/lib/R/lib -lR
installing to /home/jiyongyu/CGO/reduction-program/R_version/Rcpp_interface/FMAstyle.Rcheck/FMAstyle/libs
** R
** preparing package for lazy loading
** help
*** installing help indices
** building package indices
** testing if installed package can be loaded
* DONE (FMAstyle)
