sample.interval=20000
"tree" "tree" "tree" "tree" "tree" "tree" "tree" "tree" "tree" "tree" "tree" "tree" "tree" "check" "cat" "run" 
"check" "check" "check" "check" "check" "check" "check" "check" "check" "check" "check" "check" "check" "check" "cat" "run" 
"-" "check" "check" "check" "check" "check" "check" "check" "check" "check" "cat" "run" 
"list" "tree" "tree" "check" "run" 
"tree" "tree" "tree" "tree" "tree" "check" "run" 
"check" "check" "check" "check" "check" "run" 
"+" "check" "check" "check" "check" "run" 
"check" "check" "check" "check" "run" 
"check" "check" "check" "run" 
"check" "check" "check" "check" "check" "run" 
"check" "check" "check" "check" "check" "run" 
"tree" "tree" "tree" "tree" "check" "run" 
"check" "check" "check" "check" "run" 
"*" "tree" "tree" "tree" "check" "run" 
"check" "check" "check" "check" "check" "run" 
"tree" "tree" "tree" "tree" "tree" "check" "run" 
"==" "tree" "tree" "tree" "tree" "check" "run" 
"-" "check" "check" "run" 
"==" "tree" "tree" "tree" "tree" "tree" "check" "run" 
"check" "check" "check" "check" "check" "run" 
"tree" "tree" "tree" "check" "run" 
"check" "check" "check" "check" "check" "run" 
"tree" "tree" "tree" "check" "run" 
"check" "check" "check" "check" "check" "run" 
"check" "run" 
"==" "tree" "tree" "tree" "tree" "tree" "check" "run" 
"tree" "tree" "tree" "tree" "check" "run" 
"check" "check" "check" "run" 
"tree" "tree" "tree" "check" "run" 
"check" "check" "check" "check" "check" "run" 
"check" "check" "check" "check" "run" 
"==" "tree" "check" "run" 
"check" "check" "check" "check" "check" "run" 
"check" "check" "check" "check" "run" 
"check" "check" "run" 
"check" "check" "check" "check" "run" 
"check" "check" "check" "check" "check" "run" 
"tree" "tree" "tree" "tree" "check" "run" 
"check" "check" "check" "check" "run" 
"tree" "tree" "tree" "tree" "tree" "check" "run" 
"tree" "tree" "tree" "tree" "check" "run" 
"check" "check" "run" 
"tree" "tree" "tree" "tree" "check" "run" 
"tree" "tree" "tree" "check" "run" 
"tree" "tree" "tree" "tree" "tree" "check" "run" 
"tree" "tree" "tree" "tree" "check" "run" 
"check" "check" "check" "check" "run" 
"tree" "tree" "tree" "tree" "tree" "tree" "tree" "check" "run" 
"check" "check" "check" "check" "check" "check" "check" "run" 
"check" "check" "check" "check" "check" "check" "run" 
"check" "check" "check" "check" "check" "check" "check" "run" 
"tree" "tree" "tree" "tree" "tree" "tree" "tree" "check" "run" 
"tree" "tree" "tree" "check" "run" 
"check" "check" "check" "check" "check" "check" "check" "run" 
"check" "check" "check" "check" "check" "check" "run" 
"-" "tree" "tree" "tree" "tree" "tree" "tree" "check" "run" 
"+" "check" "check" "check" "check" "check" "check" "run" 
"==" "tree" "tree" "tree" "tree" "tree" "tree" "tree" "check" "run" 
"tree" "tree" "tree" "tree" "tree" "tree" "tree" "check" "run" 
"tree" "tree" "tree" "tree" "tree" "tree" "check" "run" 
"check" "check" "check" "check" "check" "check" "check" "run" 
"tree" "tree" "check" "run" 
"c" "tree" "tree" "tree" "tree" "tree" "tree" "tree" "check" "run" 
"check" "check" "check" "check" "check" "check" "run" 
"==" "tree" "tree" "tree" "tree" "tree" "check" "run" 
"check" "check" "check" "check" "check" "check" "run" 
"==" "check" "check" "check" "check" "check" "check" "check" "run" 
"tree" "tree" "tree" "tree" "tree" "tree" "tree" "check" "run" 
"check" "check" "check" "check" "run" 
"list" "tree" "tree" "tree" "tree" "tree" "tree" "check" "run" 
"check" "check" "check" "check" "check" "check" "run" 
"check" "check" "check" "check" "check" "run" 
"tree" "tree" "tree" "tree" "tree" "tree" "tree" "check" "run" 
"check" "check" "check" "run" 
"tree" "tree" "tree" "tree" "tree" "tree" "check" "run" 
"check" "check" "check" "check" "check" "check" "check" "run" 
"tree" "tree" "tree" "tree" "tree" "tree" "tree" "check" "run" 
"check" "check" "check" "check" "check" "check" "check" "run" 
"c" "tree" "tree" "tree" "tree" "tree" "tree" "tree" "check" "run" 
"check" "check" "check" "check" "check" "check" "check" "run" 
"tree" "tree" "tree" "tree" "tree" "tree" "tree" "check" "run" 
"check" "check" "check" "check" "check" "check" "check" "run" 
"tree" "tree" "tree" "tree" "tree" "tree" "check" "run" 
"==" "check" "check" "check" "check" "check" "check" "check" "run" 
"==" "check" "check" "check" "check" "check" "check" "run" 
"tree" "tree" "tree" "tree" "tree" "tree" "tree" "check" "run" 
"check" "check" "check" "check" "check" "check" "check" "run" 
"==" "tree" "tree" "tree" "tree" "tree" "tree" "tree" "check" "run" 
"check" "check" "check" "check" "check" "check" "run" 
"*" "tree" "tree" "tree" "tree" "tree" "tree" "tree" "tree" "check" "run" 
"tree" "tree" "tree" "tree" "tree" "tree" "tree" "tree" "check" "run" 
"==" "tree" "tree" "tree" "tree" "tree" "tree" "tree" "tree" "tree" "check" "run" 
"check" "check" "check" "check" "check" "check" "check" "check" "check" "run" 
"check" "check" "check" "check" "check" "check" "check" "check" "run" 
"check" "check" "check" "check" "check" "check" "check" "check" "run" 
"check" "check" "run" 
"check" "check" "check" "check" "check" "check" "check" "check" "run" 
"check" "check" "check" "check" "check" "run" 
"check" "check" "check" "check" "check" "check" "check" "check" "run" 
"check" "check" "check" "check" "check" "check" "check" "check" "run" 
"check" "check" "check" "check" "check" "check" "check" "check" "check" "run" 
"+" "check" "check" "check" "check" "check" "check" "check" "check" "run" 
"check" "check" "check" "check" "check" "check" "check" "run" 
"==" "check" "check" "check" "check" "check" "check" "check" "check" "check" "run" 
"check" "check" "check" "check" "check" "check" "check" "check" "run" 
"tree" "tree" "tree" "tree" "tree" "tree" "tree" "tree" "check" "run" 
"tree" "tree" "tree" "tree" "tree" "tree" "tree" "check" "run" 
"tree" "tree" "tree" "tree" "tree" "tree" "check" "run" 
"c" "tree" "tree" "tree" "tree" "tree" "tree" "tree" "tree" "tree" "check" "run" 
"tree" "tree" "tree" "tree" "tree" "tree" "tree" "tree" "check" "run" 
"tree" "tree" "tree" "tree" "tree" "tree" "tree" "tree" "tree" "check" "run" 
"tree" "tree" "tree" "tree" "tree" "tree" "tree" "tree" "tree" "check" "run" 
"check" "check" "check" "check" "run" 
"check" "check" "check" "check" "check" "check" "check" "check" "check" "run" 
"check" "check" "check" "check" "check" "check" "check" "run" 
"tree" "tree" "tree" "tree" "tree" "tree" "tree" "tree" "tree" "check" "run" 
"==" "tree" "tree" "tree" "tree" "tree" "tree" "tree" "tree" "tree" "check" "run" 
"tree" "tree" "tree" "tree" "tree" "tree" "tree" "tree" "check" "run" 
"check" "check" "check" "check" "check" "check" "check" "run" 
"check" "check" "check" "check" "check" "check" "check" "run" 
"check" "check" "check" "check" "check" "check" "check" "run" 
"tree" "tree" "tree" "tree" "tree" "tree" "tree" "check" "run" 
"check" "check" "check" "check" "check" "check" "check" "check" "check" "run" 
"check" "check" "check" "check" "check" "check" "check" "check" "check" "run" 
"check" "check" "check" "check" "check" "check" "check" "check" "run" 
"check" "check" "check" "check" "check" "check" "check" "check" "run" 
"check" "check" "run" 
"tree" "tree" "tree" "tree" "tree" "tree" "tree" "tree" "tree" "check" "run" 
"-" "tree" "tree" "tree" "tree" "tree" "tree" "tree" "tree" "check" "run" 
"run" 
"==" "check" "check" "check" "check" "check" "check" "check" "check" "run" 
"check" "check" "check" "check" "check" "check" "check" "check" "run" 
"check" "check" "check" "check" "check" "check" "check" "check" "check" "check" "run" 
"check" "check" "check" "check" "check" "check" "check" "check" "run" 
"check" "check" "check" "check" "check" "check" "check" "check" "check" "check" "run" 
"check" "check" "check" "check" "check" "check" "check" "check" "check" "check" "run" 
"check" "check" "check" "check" "check" "check" "check" "check" "check" "check" "check" "run" 
"tree" "tree" "tree" "tree" "tree" "tree" "tree" "tree" "tree" "tree" "tree" "check" "run" 
"tree" "tree" "tree" "tree" "tree" "tree" "tree" "tree" "tree" "check" "run" 
"tree" "tree" "tree" "tree" "tree" "tree" "tree" "check" "run" 
"tree" "tree" "tree" "tree" "tree" "tree" "tree" "tree" "tree" "tree" "check" "run" 
"check" "check" "check" "check" "check" "check" "check" "check" "check" "run" 
"check" "check" "check" "check" "check" "check" "check" "check" "check" "check" "check" "run" 
"check" "check" "check" "check" "check" "check" "check" "check" "check" "check" "run" 
"tree" "tree" "tree" "tree" "tree" "tree" "tree" "tree" "tree" "tree" "check" "run" 
"tree" "tree" "tree" "tree" "tree" "tree" "tree" "tree" "tree" "tree" "check" "run" 
"tree" "tree" "tree" "tree" "tree" "tree" "tree" "tree" "tree" "tree" "check" "run" 
"check" "check" "check" "check" "check" "check" "check" "check" "check" "check" "run" 
"==" "check" "check" "check" "check" "check" "check" "check" "check" "check" "check" "run" 
"check" "check" "check" "check" "check" "check" "check" "check" "check" "run" 
"tree" "tree" "tree" "tree" "tree" "tree" "tree" "tree" "tree" "tree" "check" "run" 
"tree" "tree" "tree" "check" "run" 
"==" "tree" "tree" "tree" "tree" "tree" "tree" "tree" "tree" "tree" "tree" "check" "run" 
"check" "check" "check" "check" "check" "check" "check" "check" "check" "check" "run" 
"check" "check" "check" "check" "check" "check" "check" "check" "check" "check" "run" 
"tree" "tree" "tree" "tree" "tree" "tree" "tree" "tree" "tree" "tree" "tree" "check" "run" 
"tree" "tree" "tree" "tree" "tree" "tree" "tree" "tree" "tree" "tree" "check" "run" 
"c" "tree" "tree" "tree" "tree" "tree" "tree" "tree" "tree" "tree" "tree" "tree" "check" "run" 
"check" "check" "check" "check" "check" "check" "check" "check" "check" "run" 
"check" "check" "check" "check" "check" "check" "check" "check" "check" "check" "check" "run" 
"check" "check" "check" "check" "check" "check" "check" "check" "check" "check" "run" 
"tree" "tree" "tree" "tree" "tree" "tree" "tree" "tree" "tree" "tree" "tree" "check" "run" 
"tree" "tree" "tree" "tree" "tree" "tree" "tree" "tree" "tree" "tree" "tree" "check" "run" 
"tree" "tree" "tree" "tree" "tree" "tree" "tree" "tree" "tree" "tree" "tree" "check" "run" 
"tree" "tree" "tree" "tree" "tree" "tree" "tree" "tree" "tree" "check" "run" 
"==" "tree" "tree" "tree" "tree" "tree" "tree" "tree" "tree" "tree" "tree" "tree" "check" "run" 
"tree" "tree" "tree" "tree" "tree" "tree" "tree" "tree" "tree" "check" "run" 
"tree" "tree" "tree" "tree" "tree" "tree" "tree" "tree" "tree" "tree" "check" "run" 
"tree" "tree" "tree" "tree" "tree" "tree" "tree" "tree" "tree" "check" "run" 
"tree" "tree" "tree" "tree" "tree" "tree" "tree" "tree" "tree" "check" "run" 
"check" "check" "check" "check" "check" "check" "check" "check" "check" "check" "check" "run" 
"check" "check" "check" "check" "check" "check" "check" "check" "check" "check" "check" "run" 
"check" "check" "check" "check" "check" "check" "check" "check" "check" "check" "run" 
"check" "check" "check" "check" "check" "check" "check" "check" "run" 
"check" "check" "check" "check" "check" "check" "check" "check" "check" "check" "check" "run" 
"check" "check" "check" "check" "check" "check" "check" "check" "check" "check" "run" 
"check" "check" "check" "check" "check" "check" "check" "check" "check" "run" 
"==" "check" "check" "check" "check" "check" "check" "check" "check" "check" "check" "check" "check" "check" "run" 
"tree" "tree" "tree" "tree" "tree" "tree" "tree" "tree" "tree" "tree" "tree" "tree" "check" "run" 
"==" "check" "check" "check" "check" "check" "check" "check" "check" "check" "check" "run" 
"check" "check" "check" "check" "check" "check" "check" "check" "check" "check" "check" "check" "check" "run" 
"*" "tree" "tree" "tree" "tree" "tree" "tree" "tree" "tree" "check" "run" 
"tree" "tree" "tree" "tree" "tree" "tree" "tree" "tree" "tree" "tree" "tree" "tree" "tree" "check" "run" 
"check" "check" "check" "check" "check" "check" "check" "check" "check" "check" "run" 
"list" "tree" "tree" "tree" "tree" "tree" "tree" "tree" "tree" "tree" "tree" "check" "run" 
"-" "tree" "tree" "tree" "tree" "tree" "tree" "tree" "tree" "tree" "tree" "tree" "tree" "tree" "check" "run" 
"check" "check" "check" "check" "check" "check" "check" "check" "check" "check" "check" "run" 
"tree" "tree" "tree" "tree" "tree" "tree" "tree" "tree" "tree" "tree" "tree" "tree" "tree" "check" "run" 
"tree" "tree" "tree" "tree" "tree" "tree" "tree" "tree" "tree" "tree" "tree" "tree" "tree" "check" "run" 
"check" "check" "check" "check" "check" "check" "check" "check" "check" "check" "check" "check" "run" 
"tree" "tree" "tree" "tree" "tree" "tree" "tree" "tree" "tree" "tree" "tree" "check" "run" 
"tree" "tree" "tree" "tree" "tree" "tree" "tree" "tree" "tree" "tree" "tree" "tree" "check" "run" 
"check" "check" "check" "check" "check" "check" "check" "check" "check" "check" "check" "check" "check" "run" 
"tree" "tree" "tree" "tree" "tree" "tree" "tree" "tree" "tree" "tree" "tree" "tree" "tree" "check" "run" 
"check" "check" "check" "check" "check" "check" "check" "check" "check" "check" "check" "check" "check" "run" 
"check" "check" "check" "check" "check" "check" "check" "check" "check" "check" "run" 
"tree" "tree" "tree" "tree" "tree" "tree" "tree" "tree" "tree" "tree" "tree" "check" "run" 
"check" "check" "check" "check" "check" "check" "check" "check" "check" "check" "check" "check" "check" "run" 
"tree" "tree" "tree" "tree" "tree" "tree" "tree" "tree" "tree" "tree" "check" "run" 
"tree" "tree" "tree" "tree" "tree" "tree" "tree" "tree" "tree" "check" "run" 
"check" "check" "check" "check" "check" "check" "check" "check" "check" "check" "check" "check" "run" 
"*" "tree" "tree" "tree" "tree" "tree" "tree" "tree" "tree" "tree" "tree" "check" "run" 
"+" "check" "check" "check" "check" "check" "check" "check" "check" "check" "check" "check" "check" "run" 
"-" "check" "check" "check" "check" "check" "check" "check" "check" "check" "check" "check" "check" "run" 
"-" "tree" "tree" "tree" "tree" "tree" "tree" "tree" "tree" "tree" "tree" "tree" "check" "run" 
"check" "check" "check" "check" "check" "check" "check" "check" "check" "check" "check" "check" "run" 
"check" "check" "check" "check" "check" "check" "check" "check" "check" "check" "run" 
"tree" "tree" "tree" "tree" "tree" "tree" "tree" "tree" "tree" "tree" "tree" "tree" "tree" "check" "run" 
"check" "check" "check" "check" "check" "check" "check" "check" "check" "check" "check" "check" "run" 
"tree" "tree" "tree" "tree" "tree" "tree" "tree" "tree" "tree" "tree" "tree" "tree" "tree" "check" "run" 
"check" "check" "check" "check" "check" "check" "check" "check" "check" "check" "run" 
"check" "check" "check" "check" "check" "check" "check" "check" "check" "check" "check" "check" "check" "run" 
"tree" "tree" "tree" "tree" "tree" "tree" "tree" "tree" "tree" "tree" "tree" "check" "run" 
"check" "check" "check" "check" "check" "check" "check" "check" "check" "check" "check" "check" "check" "run" 
"==" "tree" "tree" "tree" "tree" "tree" "tree" "tree" "tree" "tree" "tree" "tree" "tree" "tree" "check" "run" 
"tree" "tree" "tree" "tree" "tree" "tree" "tree" "tree" "tree" "tree" "tree" "tree" "tree" "check" "run" 
"check" "check" "check" "check" "check" "check" "check" "check" "check" "check" "check" "check" "check" "run" 
"tree" "tree" "tree" "tree" "tree" "tree" "tree" "tree" "tree" "tree" "tree" "check" "run" 
"check" "check" "check" "check" "check" "check" "check" "check" "check" "check" "check" "check" "check" "run" 
"tree" "tree" "tree" "tree" "tree" "tree" "tree" "tree" "tree" "tree" "tree" "check" "run" 
"tree" "tree" "tree" "tree" "tree" "tree" "tree" "tree" "tree" "tree" "tree" "tree" "check" "run" 
"check" "check" "check" "check" "check" "check" "check" "run" 
"tree" "tree" "tree" "tree" "tree" "tree" "tree" "tree" "tree" "tree" "tree" "tree" "check" "run" 
"tree" "tree" "tree" "tree" "tree" "tree" "tree" "tree" "tree" "tree" "tree" "tree" "check" "run" 
"*" "tree" "tree" "tree" "tree" "tree" "tree" "tree" "tree" "tree" "tree" "tree" "tree" "tree" "check" "run" 
"c" "tree" "tree" "tree" "tree" "tree" "tree" "tree" "tree" "tree" "tree" "tree" "tree" "tree" "check" "run" 
"==" "check" "check" "check" "check" "check" "check" "check" "check" "check" "check" "check" "check" "run" 
"check" "check" "check" "check" "check" "check" "check" "check" "check" "check" "check" "check" "check" "cat" "run" 
