
Each sample represents 0.02 seconds.
Total run time: 4.54 seconds.

Total seconds: time spent in function and callees.
Self seconds: time spent in function alone.

   %       total       %        self
 total    seconds     self    seconds    name
 100.0      4.54      52.9      2.40     "check"
 100.0      4.54       0.0      0.00     "run"
  40.5      1.84      26.0      1.18     "tree"
   7.5      0.34       7.5      0.34     "=="
   4.0      0.18       4.0      0.18     "list"
   3.5      0.16       3.5      0.16     "-"
   3.1      0.14       3.1      0.14     "*"
   1.8      0.08       1.8      0.08     "c"
   1.8      0.08       0.0      0.00     "cat"
   1.3      0.06       1.3      0.06     "+"


   %        self       %      total
  self    seconds    total   seconds    name
  52.9      2.40     100.0      4.54     "check"
  26.0      1.18      40.5      1.84     "tree"
   7.5      0.34       7.5      0.34     "=="
   4.0      0.18       4.0      0.18     "list"
   3.5      0.16       3.5      0.16     "-"
   3.1      0.14       3.1      0.14     "*"
   1.8      0.08       1.8      0.08     "c"
   1.3      0.06       1.3      0.06     "+"
